EDI_SCCHG_20160317_3
TableName	Actflag	Created	Changed	ScChgID	SecID	ISIN	DateofChange	SecOldName	SecNewName	EventType	OldSectyCD	NewSectyCD	OldRegS144A	NewRegS144A	Notes
SCCHG	I	2016/03/17	2016/03/17	522514	4038811	XS0935144914	2013/05/29	FR MTN REDEEM 28/05/2099 EUR 100000 - Cls B	FR NT REDEEM 28/05/2099 EUR 100000 - Cls B						
SCCHG	I	2016/03/17	2016/03/17	522515	4718286	US00254EMJ81	2016/03/11	1.75% NT REDEEM 10/03/2021 GBP 200000	1.75% NT REDEEM 10/03/2021 USD 200000						
SCCHG	I	2016/03/17	2016/03/17	522516	4728593	SG71D8000003	2016/03/16	2.965% MTN REDEEM 16/03/2021 SGD 250000	2.965% NT REDEEM 16/03/2021 SGD 250000						
SCCHG	I	2016/03/17	2016/03/17	522517	4717154		2016/03/02	ZC CD REDEEM 03/09/2016 CNY	ZC CD REDEEM 03/09/2016 CNY 100	CORR					
SCCHG	I	2016/03/17	2016/03/17	522518	4717148		2016/03/02	ZC CD REDEEM 03/12/2016 CNY	ZC CD REDEEM 03/12/2016 CNY 100	CORR					
SCCHG	I	2016/03/17	2016/03/17	522519	4717167		2016/03/02	ZC CD REDEEM 03/03/2017 CNY - 111691137	ZC CD REDEEM 03/03/2017 CNY 100 - 111691137	CORR					
SCCHG	I	2016/03/17	2016/03/17	522520	4717152		2016/03/02	ZC CD REDEEM 03/03/2017 CNY	ZC CD REDEEM 03/03/2017 CNY 100	CORR					
SCCHG	I	2016/03/17	2016/03/17	522521	4729891	KR6140171630	2016/03/17	1.93% NT REDEEM 15/03/2019 KRW 1000	1.93% BD REDEEM 15/03/2019 KRW 1000						
SCCHG	I	2016/03/17	2016/03/17	522522	4717199		2016/03/02	ZC CD REDEEM 03/09/2016 CNY	ZC CD REDEEM 03/09/2016 CNY 100	CORR					
SCCHG	I	2016/03/17	2016/03/17	522523	4729894	KR6140172638	2016/03/17	2.11% NT REDEEM 17/03/2021 KRW 1000	2.11% BD REDEEM 17/03/2021 KRW 1000						
SCCHG	I	2016/03/17	2016/03/17	522524	4717197		2016/03/02	ZC CD REDEEM 03/09/2016 CNY	ZC CD REDEEM 03/09/2016 CNY 100	CORR					
SCCHG	I	2016/03/17	2016/03/17	522525	4178475	XS0899564396	2013/11/19	FR BD REDEEM 19/11/2018 USD 1000	FR BD REDEEM 19/11/2018 USD 2000	CORR					
SCCHG	I	2016/03/17	2016/03/17	522526	4717186		2016/03/02	ZC CD REDEEM 03/04/2016 CNY	ZC CD REDEEM 03/04/2016 CNY 100	CORR					
SCCHG	I	2016/03/17	2016/03/17	522527	4729868	KR310209J631	2016/03/17	2.85% NT REDEEM 17/03/2036 KRW 1000	2.85% DB REDEEM 17/03/2036 KRW 1000						
SCCHG	I	2016/03/17	2016/03/17	522528	4717236		2016/03/02	ZC CD REDEEM 03/09/2016 CNY	ZC CD REDEEM 03/09/2016 CNY 100	CORR					
SCCHG	I	2016/03/17	2016/03/17	522529	4717145		2016/03/02	ZC CD REDEEM 03/09/2016 CNY	ZC CD REDEEM 03/09/2016 CNY 100	CORR					
SCCHG	I	2016/03/17	2016/03/17	522530	4717169		2016/03/02	ZC CD REDEEM 03/06/2016 CNY - 111610107	ZC CD REDEEM 03/06/2016 CNY 100 - 111610107	CORR					
SCCHG	I	2016/03/17	2016/03/17	522531	4178475	XS0899564396	2013/11/20	FR BD REDEEM 19/11/2018 USD 2000	FR NT REDEEM 19/11/2018 USD 2000						
SCCHG	I	2016/03/17	2016/03/17	522532	4717171		2016/03/02	ZC CD REDEEM 03/09/2016 CNY	ZC CD REDEEM 03/09/2016 CNY 100	CORR					
SCCHG	I	2016/03/17	2016/03/17	522533	4717166		2016/03/02	ZC CD REDEEM 03/03/2017 CNY	ZC CD REDEEM 03/03/2017 CNY 100	CORR					
SCCHG	I	2016/03/17	2016/03/17	522535	4717161		2016/03/02	ZC CD REDEEM 03/06/2016 CNY	ZC CD REDEEM 03/06/2016 CNY 100	CORR					
SCCHG	I	2016/03/17	2016/03/17	522536	4717267		2016/03/02	ZC CD REDEEM 03/09/2016 CNY	ZC CD REDEEM 03/09/2016 CNY 100	CORR					
SCCHG	I	2016/03/17	2016/03/17	522537	4675069	SG70G8000008	2016/03/16	ZC TBILL REDEEM 30/08/2016 SGD 1000	ZC CMB REDEEM 30/08/2016 SGD 1000						
SCCHG	I	2016/03/17	2016/03/17	522541	4717184		2016/03/02	ZC CD REDEEM 03/12/2016 CNY	ZC CD REDEEM 03/12/2016 CNY 100	CORR					
SCCHG	I	2016/03/17	2016/03/17	522542	4717210		2016/03/02	ZC CD REDEEM 03/06/2016 CNY	ZC CD REDEEM 03/06/2016 CNY 100	CORR					
SCCHG	I	2016/03/17	2016/03/17	522543	4717181		2016/03/02	ZC CD REDEEM 03/06/2016 CNY - 111611070	ZC CD REDEEM 03/06/2016 CNY 100 - 111611070	CORR					
SCCHG	I	2016/03/17	2016/03/17	522544	4717178		2016/03/02	ZC CD REDEEM 03/04/2016 CNY - 111611069	ZC CD REDEEM 03/04/2016 CNY 100 - 111611069	CORR					
SCCHG	I	2016/03/17	2016/03/17	522545	4723366	IT0005162810	2016/03/10	FR BD REDEEM 26/02/2019 EUR	FR BD REDEEM 26/02/2019 EUR 100000	CORR					
SCCHG	I	2016/03/17	2016/03/17	522546	4728482	XS1381944260	2016/03/17	3.75% NT REDEEM 22/03/2046 GBP 200000 - Reg S	3.75% NT REDEEM 22/03/2046 GBP 100000 - Reg S	CORR					
SCCHG	I	2016/03/17	2016/03/17	522547	4717175		2016/03/02	ZC CD REDEEM 03/03/2017 CNY	ZC CD REDEEM 03/03/2017 CNY 100	CORR					
SCCHG	I	2016/03/17	2016/03/17	522548	4728474	XS1382693452	2016/03/17	1% MTN REDEEM 21/03/2023 EUR 1000	1.875% MTN REDEEM 21/03/2023 EUR 1000						
SCCHG	I	2016/03/17	2016/03/17	522549	4717251		2016/03/02	ZC CD REDEEM 03/06/2016 CNY	ZC CD REDEEM 03/06/2016 CNY 100	CORR					
SCCHG	I	2016/03/17	2016/03/17	522551	4717949		2016/03/03	ZC CD REDEEM 04/06/2016 CNY	ZC CD REDEEM 04/06/2016 CNY 100	CORR					
SCCHG	I	2016/03/17	2016/03/17	522553	4717950		2016/03/03	ZC CD REDEEM 04/03/2017 CNY	ZC CD REDEEM 04/03/2017 CNY 100	CORR					
SCCHG	I	2016/03/17	2016/03/17	522556	4717261		2016/03/02	ZC CD REDEEM 03/04/2016 CNY	ZC CD REDEEM 03/04/2016 CNY 100	CORR					
SCCHG	I	2016/03/17	2016/03/17	522557	4718040		2016/03/03	ZC CD REDEEM 04/09/2016 CNY	ZC CD REDEEM 04/09/2016 CNY 100	CORR					
SCCHG	I	2016/03/17	2016/03/17	522558	4718041		2016/03/03	ZC CD REDEEM 04/06/2016 CNY	ZC CD REDEEM 04/06/2016 CNY 100	CORR					
SCCHG	I	2016/03/17	2016/03/17	522559	4718036		2016/03/03	ZC CD REDEEM 04/09/2016 CNY	ZC CD REDEEM 04/09/2016 CNY 100	CORR					
SCCHG	I	2016/03/17	2016/03/17	522560	4718012		2016/03/03	ZC CD REDEEM 04/09/2016 CNY	ZC CD REDEEM 04/09/2016 CNY 100	CORR					
SCCHG	I	2016/03/17	2016/03/17	522561	3915359	XS0843955013	2012/10/18	2.20% MTN REDEEM 17/10/2019 EUR 100000	2.20% NT REDEEM 17/10/2019 EUR 100000						
SCCHG	I	2016/03/17	2016/03/17	522562	4717984		2016/03/03	ZC CD REDEEM 04/12/2016 CNY	ZC CD REDEEM 04/12/2016 CNY 100	CORR					
SCCHG	I	2016/03/17	2016/03/17	522563	4294664	XS1082238392	2014/06/28	1.35% MTN REDEEM 27/06/2016 EUR 100000	1.35% NT REDEEM 27/06/2016 EUR 100000						
SCCHG	I	2016/03/17	2016/03/17	522564	4718043		2016/03/03	ZC CD REDEEM 04/03/2017 CNY	ZC CD REDEEM 04/03/2017 CNY 100	CORR					
SCCHG	I	2016/03/17	2016/03/17	522565	4718009		2016/03/03	ZC CD REDEEM 04/04/2016 CNY	ZC CD REDEEM 04/04/2016 CNY 100	CORR					
SCCHG	I	2016/03/17	2016/03/17	522566	4717981		2016/03/03	ZC CD REDEEM 04/03/2017 CNY	ZC CD REDEEM 04/03/2017 CNY 100	CORR					
SCCHG	I	2016/03/17	2016/03/17	522567	4718031		2016/03/03	ZC CD REDEEM 04/12/2016 CNY	ZC CD REDEEM 04/12/2016 CNY 100	CORR					
SCCHG	I	2016/03/17	2016/03/17	522568	4717999		2016/03/03	ZC CD REDEEM 04/03/2017 CNY	ZC CD REDEEM 04/03/2017 CNY 100	CORR					
SCCHG	I	2016/03/17	2016/03/17	522569	4718465	GB00BXR8SY79	2016/03/15	ZC NT REDEEM 12/09/2016 GBP 1	ZC TBILL REDEEM 12/09/2016 GBP 1						
SCCHG	I	2016/03/17	2016/03/17	522570	4717931		2016/03/03	ZC CD REDEEM 04/09/2016 CNY	ZC CD REDEEM 04/09/2016 CNY 100	CORR					
SCCHG	I	2016/03/17	2016/03/17	522571	4717973		2016/03/03	ZC CD REDEEM 04/06/2016 CNY	ZC CD REDEEM 04/06/2016 CNY 100	CORR					
SCCHG	I	2016/03/17	2016/03/17	522572	4717928		2016/03/03	ZC CD REDEEM 04/06/2016 CNY	ZC CD REDEEM 04/06/2016 CNY 100	CORR					
SCCHG	I	2016/03/17	2016/03/17	522573	4718051		2016/03/03	ZC CD REDEEM 04/09/2016 CNY	ZC CD REDEEM 04/09/2016 CNY 100	CORR					
SCCHG	I	2016/03/17	2016/03/17	522574	4718046		2016/03/03	ZC CD REDEEM 04/04/2016 CNY	ZC CD REDEEM 04/04/2016 CNY 100	CORR					
SCCHG	I	2016/03/17	2016/03/17	522575	4717967		2016/03/03	ZC CD REDEEM 04/03/2017 CNY	ZC CD REDEEM 04/03/2017 CNY 100	CORR					
SCCHG	I	2016/03/17	2016/03/17	522576	4717934		2016/03/03	ZC CD REDEEM 04/03/2017 CNY	ZC CD REDEEM 04/03/2017 CNY 100	CORR					
SCCHG	I	2016/03/17	2016/03/17	522577	4717960		2016/03/03	ZC CD REDEEM 04/06/2016 CNY	ZC CD REDEEM 04/06/2016 CNY 100	CORR					
SCCHG	I	2016/03/17	2016/03/17	522578	4717158	INE946H07042	2016/03/10	19.25% DB REDEEM 31/08/2021 INR 1000000	19.25% DB REDEEM 08/09/2021 INR 1000000						
SCCHG	I	2016/03/17	2016/03/17	522579	3911940	XS0841359507	2012/10/12	4.30% MTN REDEEM 11/10/2022 AUD 100000	4.30% NT REDEEM 11/10/2022 AUD 100000						
SCCHG	I	2016/03/17	2016/03/17	522580	3873010	XS0807816011	2012/07/22	2% BD REDEEM 20/07/2016 EUR 100000	2% NT REDEEM 20/07/2016 EUR 100000						
SCCHG	I	2016/03/17	2016/03/17	522581	4718023		2016/03/03	ZC CD REDEEM 04/06/2016 CNY - 111691203	ZC CD REDEEM 04/06/2016 CNY 100 - 111691203	CORR					
SCCHG	I	2016/03/17	2016/03/17	522582	4717959		2016/03/03	ZC CD REDEEM 04/03/2017 CNY	ZC CD REDEEM 04/03/2017 CNY 100	CORR					
SCCHG	I	2016/03/17	2016/03/17	522583	4717932		2016/03/03	ZC CD REDEEM 04/12/2016 CNY	ZC CD REDEEM 04/12/2016 CNY 100	CORR					
SCCHG	I	2016/03/17	2016/03/17	522584	4717965		2016/03/03	ZC CD REDEEM 04/04/2016 CNY	ZC CD REDEEM 04/04/2016 CNY 100	CORR					
SCCHG	I	2016/03/17	2016/03/17	522585	4718032		2016/03/03	ZC CD REDEEM 04/04/2016 CNY	ZC CD REDEEM 04/04/2016 CNY 100	CORR					
SCCHG	I	2016/03/17	2016/03/17	522586	4717948		2016/03/03	ZC CD REDEEM 04/03/2017 CNY	ZC CD REDEEM 04/03/2017 CNY 100	CORR					
SCCHG	I	2016/03/17	2016/03/17	522587	4717972		2016/03/03	ZC CD REDEEM 04/09/2016 CNY	ZC CD REDEEM 04/09/2016 CNY 100	CORR					
SCCHG	I	2016/03/17	2016/03/17	522588	4723523	XS1273407731	2016/03/10	ZC MTN REDEEM 24/03/2017 HKD 500000	ZC MTN REDEEM 24/03/2017 HKD 1	CORR					
SCCHG	I	2016/03/17	2016/03/17	522589	4717971		2016/03/03	ZC CD REDEEM 04/06/2016 CNY	ZC CD REDEEM 04/06/2016 CNY 100	CORR					
SCCHG	I	2016/03/17	2016/03/17	522590	4268680	XS1070004707	2014/05/24	FR MTN REDEEM 23/05/2019 EUR 100000	FR NT REDEEM 23/05/2019 EUR 100000						
SCCHG	I	2016/03/17	2016/03/17	522591	4718950		2016/03/04	ZC CD REDEEM 07/09/2016 CNY	ZC CD REDEEM 07/09/2016 CNY 100	CORR					
SCCHG	I	2016/03/17	2016/03/17	522592	4717980		2016/03/03	ZC CD REDEEM 04/03/2017 CNY	ZC CD REDEEM 04/03/2017 CNY 100	CORR					
SCCHG	I	2016/03/17	2016/03/17	522593	4718968		2016/03/04	ZC CD REDEEM 07/04/2016 CNY	ZC CD REDEEM 07/04/2016 CNY 100	CORR					
SCCHG	I	2016/03/17	2016/03/17	522594	4730443		2016/02/19	ZC BD REDEEM 19/05/2016 BND - Ser 127 Ijarah	ZC TBILL REDEEM 19/05/2016 BND - Ser 127 Ijarah						
SCCHG	I	2016/03/17	2016/03/17	522595	4718984		2016/03/04	ZC CD REDEEM 07/12/2016 CNY	ZC CD REDEEM 07/12/2016 CNY 100	CORR					
SCCHG	I	2016/03/17	2016/03/17	522596	4718992		2016/03/04	ZC CD REDEEM 07/03/2017 CNY	ZC CD REDEEM 07/03/2017 CNY 100	CORR					
SCCHG	I	2016/03/17	2016/03/17	522597	4718940		2016/03/04	ZC CD REDEEM 07/03/2017 CNY	ZC CD REDEEM 07/03/2017 CNY 100	CORR					
SCCHG	I	2016/03/17	2016/03/17	522598	4719036		2016/03/04	ZC CD REDEEM 07/04/2016 CNY	ZC CD REDEEM 07/04/2016 CNY 100	CORR					
SCCHG	I	2016/03/17	2016/03/17	522599	4717956		2016/03/03	ZC CD REDEEM 04/09/2016 CNY	ZC CD REDEEM 04/09/2016 CNY 100	CORR					
SCCHG	I	2016/03/17	2016/03/17	522600	4718975		2016/03/04	ZC CD REDEEM 07/09/2016 CNY	ZC CD REDEEM 07/09/2016 CNY 100	CORR					
SCCHG	I	2016/03/17	2016/03/17	522601	4717958		2016/03/03	ZC CD REDEEM 04/03/2017 CNY	ZC CD REDEEM 04/03/2017 CNY 100	CORR					
SCCHG	I	2016/03/17	2016/03/17	522602	4717957		2016/03/03	ZC CD REDEEM 04/12/2016 CNY	ZC CD REDEEM 04/12/2016 CNY 100	CORR					
SCCHG	I	2016/03/17	2016/03/17	522603	4718038		2016/03/03	ZC CD REDEEM 04/09/2016 CNY	ZC CD REDEEM 04/09/2016 CNY 100	CORR					
SCCHG	I	2016/03/17	2016/03/17	522604	4718026		2016/03/03	ZC CD REDEEM 04/09/2016 CNY	ZC CD REDEEM 04/09/2016 CNY 100	CORR					
SCCHG	I	2016/03/17	2016/03/17	522605	4718034		2016/03/03	ZC CD REDEEM 04/03/2017 CNY	ZC CD REDEEM 04/03/2017 CNY 100	CORR					
EDI_ENDOFFILE
